[
    {
        "key": "group_567c3f9605502",
        "title": "Custom Content",
        "fields": [
            {
                "key": "field_567c3f9c0e630",
                "label": "Content Blocks",
                "name": "content_blocks",
                "type": "flexible_content",
                "instructions": "",
                "required": 0,
                "conditional_logic": 0,
                "wrapper": {
                    "width": "",
                    "class": "",
                    "id": ""
                },
                "button_label": "Add a Content Block",
                "min": "",
                "max": "",
                "layouts": [
                    {
                        "key": "567c402379f4e",
                        "name": "media_block",
                        "label": "Media Block",
                        "display": "block",
                        "sub_fields": [
                            {
                                "key": "field_568c3e92d7c13",
                                "label": "Type",
                                "name": "media_block_type",
                                "type": "radio",
                                "instructions": "",
                                "required": 0,
                                "conditional_logic": 0,
                                "wrapper": {
                                    "width": 50,
                                    "class": "",
                                    "id": ""
                                },
                                "choices": {
                                    "image": "Image",
                                    "video_url": "Video"
                                },
                                "other_choice": 0,
                                "save_other_choice": 0,
                                "default_value": "image : Image",
                                "layout": "horizontal"
                            },
                            {
                                "key": "field_568e6b7289c85",
                                "label": "Width",
                                "name": "media_block_width",
                                "type": "radio",
                                "instructions": "",
                                "required": 0,
                                "conditional_logic": 0,
                                "wrapper": {
                                    "width": 50,
                                    "class": "",
                                    "id": ""
                                },
                                "choices": {
                                    "full_width": "Full Width",
                                    "half_width": "Two Half Width Blocks"
                                },
                                "other_choice": 0,
                                "save_other_choice": 0,
                                "default_value": "",
                                "layout": "vertical"
                            },
                            {
                                "key": "field_567c403c0e631",
                                "label": "Image",
                                "name": "media_block_image",
                                "type": "image",
                                "instructions": "",
                                "required": 0,
                                "conditional_logic": [
                                    [
                                        {
                                            "field": "field_568c3e92d7c13",
                                            "operator": "==",
                                            "value": "image"
                                        }
                                    ]
                                ],
                                "wrapper": {
                                    "width": "",
                                    "class": "",
                                    "id": ""
                                },
                                "return_format": "array",
                                "preview_size": "thumbnail",
                                "library": "all",
                                "min_width": "",
                                "min_height": "",
                                "min_size": "",
                                "max_width": "",
                                "max_height": "",
                                "max_size": "",
                                "mime_types": ""
                            },
                            {
                                "key": "field_568c45b9b87f9",
                                "label": "Video MP4",
                                "name": "media_video_file_mp4",
                                "type": "file",
                                "instructions": "",
                                "required": 0,
                                "conditional_logic": [
                                    [
                                        {
                                            "field": "field_568c3e92d7c13",
                                            "operator": "==",
                                            "value": "video_file"
                                        }
                                    ]
                                ],
                                "wrapper": {
                                    "width": 50,
                                    "class": "",
                                    "id": ""
                                },
                                "return_format": "array",
                                "library": "all",
                                "min_size": "",
                                "max_size": "",
                                "mime_types": "mp4"
                            },
                            {
                                "key": "field_568c4670714bf",
                                "label": "Video OGG",
                                "name": "media_video_file_ogg",
                                "type": "file",
                                "instructions": "",
                                "required": 0,
                                "conditional_logic": [
                                    [
                                        {
                                            "field": "field_568c3e92d7c13",
                                            "operator": "==",
                                            "value": "video_file"
                                        }
                                    ]
                                ],
                                "wrapper": {
                                    "width": 50,
                                    "class": "",
                                    "id": ""
                                },
                                "return_format": "array",
                                "library": "all",
                                "min_size": "",
                                "max_size": "",
                                "mime_types": "ogg"
                            },
                            {
                                "key": "field_568c492b2c9cf",
                                "label": "YouTube Url",
                                "name": "media_youtube_url",
                                "type": "text",
                                "instructions": "",
                                "required": 0,
                                "conditional_logic": [
                                    [
                                        {
                                            "field": "field_568c3e92d7c13",
                                            "operator": "==",
                                            "value": "video_youtube"
                                        }
                                    ]
                                ],
                                "wrapper": {
                                    "width": 100,
                                    "class": "",
                                    "id": ""
                                },
                                "default_value": "",
                                "placeholder": "",
                                "prepend": "",
                                "append": "",
                                "maxlength": "",
                                "readonly": 0,
                                "disabled": 0
                            },
                            {
                                "key": "field_56954377629c9",
                                "label": "Video",
                                "name": "media_video_object",
                                "type": "post_object",
                                "instructions": "",
                                "required": 0,
                                "conditional_logic": [
                                    [
                                        {
                                            "field": "field_568c3e92d7c13",
                                            "operator": "==",
                                            "value": "video_url"
                                        }
                                    ]
                                ],
                                "wrapper": {
                                    "width": 100,
                                    "class": "",
                                    "id": ""
                                },
                                "post_type": [
                                    "video"
                                ],
                                "taxonomy": [],
                                "allow_null": 0,
                                "multiple": 0,
                                "return_format": "object",
                                "ui": 1
                            },
                            {
                                "key": "field_568c4ac9cde48",
                                "label": "Apply Filter to Image\/Video",
                                "name": "media_block_modify",
                                "type": "true_false",
                                "instructions": "",
                                "required": 0,
                                "conditional_logic": 0,
                                "wrapper": {
                                    "width": 30,
                                    "class": "",
                                    "id": ""
                                },
                                "message": "",
                                "default_value": 0
                            },
                            {
                                "key": "field_568c4afdcde49",
                                "label": "Opacity",
                                "name": "media_block_overlay_opacity",
                                "type": "number",
                                "instructions": "Set from 0 to 1 (for example 0.75)",
                                "required": 0,
                                "conditional_logic": [
                                    [
                                        {
                                            "field": "field_568c4ac9cde48",
                                            "operator": "==",
                                            "value": "1"
                                        }
                                    ]
                                ],
                                "wrapper": {
                                    "width": 35,
                                    "class": "",
                                    "id": ""
                                },
                                "default_value": "",
                                "placeholder": "",
                                "prepend": "",
                                "append": "",
                                "min": 0,
                                "max": 1,
                                "step": ".01",
                                "readonly": 0,
                                "disabled": 0
                            },
                            {
                                "key": "field_568c4c5cf3225",
                                "label": "Color",
                                "name": "media_block_overlay_color",
                                "type": "color_picker",
                                "instructions": "Set the color overlay for the image or video",
                                "required": 0,
                                "conditional_logic": [
                                    [
                                        {
                                            "field": "field_568c4ac9cde48",
                                            "operator": "==",
                                            "value": "1"
                                        }
                                    ]
                                ],
                                "wrapper": {
                                    "width": 35,
                                    "class": "",
                                    "id": ""
                                },
                                "default_value": ""
                            },
                            {
                                "key": "field_56943cf867a62",
                                "label": "Logo or Title",
                                "name": "media_block_logo_or_title",
                                "type": "radio",
                                "instructions": "",
                                "required": 0,
                                "conditional_logic": 0,
                                "wrapper": {
                                    "width": "",
                                    "class": "",
                                    "id": ""
                                },
                                "choices": {
                                    "logo": "Logo",
                                    "title": "Title"
                                },
                                "other_choice": 0,
                                "save_other_choice": 0,
                                "default_value": "",
                                "layout": "horizontal"
                            },
                            {
                                "key": "field_567c58eff6f30",
                                "label": "Title",
                                "name": "media_block_title",
                                "type": "text",
                                "instructions": "",
                                "required": 1,
                                "conditional_logic": [
                                    [
                                        {
                                            "field": "field_56943cf867a62",
                                            "operator": "==",
                                            "value": "title"
                                        }
                                    ]
                                ],
                                "wrapper": {
                                    "width": "",
                                    "class": "",
                                    "id": ""
                                },
                                "default_value": "",
                                "placeholder": "",
                                "prepend": "",
                                "append": "",
                                "maxlength": "",
                                "readonly": 0,
                                "disabled": 0
                            },
                            {
                                "key": "field_56943e1867a63",
                                "label": "Logo",
                                "name": "media_block_logo",
                                "type": "image",
                                "instructions": "",
                                "required": 0,
                                "conditional_logic": [
                                    [
                                        {
                                            "field": "field_56943cf867a62",
                                            "operator": "==",
                                            "value": "logo"
                                        }
                                    ]
                                ],
                                "wrapper": {
                                    "width": "",
                                    "class": "",
                                    "id": ""
                                },
                                "return_format": "array",
                                "preview_size": "thumbnail",
                                "library": "all",
                                "min_width": "",
                                "min_height": "",
                                "min_size": "",
                                "max_width": "",
                                "max_height": "",
                                "max_size": "",
                                "mime_types": ""
                            },
                            {
                                "key": "field_567c58fff6f31",
                                "label": "Subtitle",
                                "name": "media_block_subtitle",
                                "type": "text",
                                "instructions": "",
                                "required": 0,
                                "conditional_logic": 0,
                                "wrapper": {
                                    "width": "",
                                    "class": "",
                                    "id": ""
                                },
                                "default_value": "",
                                "placeholder": "",
                                "prepend": "",
                                "append": "",
                                "maxlength": "",
                                "readonly": 0,
                                "disabled": 0
                            },
                            {
                                "key": "field_567c5919f6f32",
                                "label": "Button Text",
                                "name": "media_block_button_text",
                                "type": "text",
                                "instructions": "",
                                "required": 0,
                                "conditional_logic": [
                                    [
                                        {
                                            "field": "field_568c3e92d7c13",
                                            "operator": "==",
                                            "value": "image"
                                        }
                                    ]
                                ],
                                "wrapper": {
                                    "width": 33,
                                    "class": "",
                                    "id": ""
                                },
                                "default_value": "",
                                "placeholder": "",
                                "prepend": "",
                                "append": "",
                                "maxlength": "",
                                "readonly": 0,
                                "disabled": 0
                            },
                            {
                                "key": "field_569541f5e33a5",
                                "label": "Button Link",
                                "name": "media_block_button_href",
                                "type": "post_object",
                                "instructions": "",
                                "required": 0,
                                "conditional_logic": [
                                    [
                                        {
                                            "field": "field_568c3e92d7c13",
                                            "operator": "==",
                                            "value": "image"
                                        }
                                    ]
                                ],
                                "wrapper": {
                                    "width": 33,
                                    "class": "",
                                    "id": ""
                                },
                                "post_type": [],
                                "taxonomy": [],
                                "allow_null": 0,
                                "multiple": 0,
                                "return_format": "object",
                                "ui": 1
                            },
                            {
                                "key": "field_56af12ef29b5b",
                                "label": "External Button Link",
                                "name": "media_block_custom_button_href",
                                "type": "text",
                                "instructions": "",
                                "required": 0,
                                "conditional_logic": [
                                    [
                                        {
                                            "field": "field_568c3e92d7c13",
                                            "operator": "==",
                                            "value": "image"
                                        }
                                    ]
                                ],
                                "wrapper": {
                                    "width": 33,
                                    "class": "",
                                    "id": ""
                                },
                                "default_value": "",
                                "placeholder": "",
                                "prepend": "",
                                "append": "",
                                "maxlength": "",
                                "readonly": 0,
                                "disabled": 0
                            },
                            {
                                "key": "field_568e6c04f59bb",
                                "label": "Block Color",
                                "name": "media_block_color",
                                "type": "radio",
                                "instructions": "",
                                "required": 0,
                                "conditional_logic": 0,
                                "wrapper": {
                                    "width": "",
                                    "class": "",
                                    "id": ""
                                },
                                "choices": [],
                                "other_choice": 0,
                                "save_other_choice": 0,
                                "default_value": "",
                                "layout": "horizontal"
                            }
                        ],
                        "min": "",
                        "max": ""
                    },
                    {
                        "key": "5696bc8b7b7ca",
                        "name": "accordion_block",
                        "label": "Accordion Block",
                        "display": "block",
                        "sub_fields": [
                            {
                                "key": "field_5696bc997b7cb",
                                "label": "Title",
                                "name": "accordion_block_title",
                                "type": "text",
                                "instructions": "",
                                "required": 0,
                                "conditional_logic": 0,
                                "wrapper": {
                                    "width": "",
                                    "class": "",
                                    "id": ""
                                },
                                "default_value": "",
                                "placeholder": "",
                                "prepend": "",
                                "append": "",
                                "maxlength": "",
                                "readonly": 0,
                                "disabled": 0
                            },
                            {
                                "key": "field_5696bca67b7cc",
                                "label": "Content",
                                "name": "accordion_block_content",
                                "type": "wysiwyg",
                                "instructions": "",
                                "required": 0,
                                "conditional_logic": 0,
                                "wrapper": {
                                    "width": "",
                                    "class": "",
                                    "id": ""
                                },
                                "default_value": "",
                                "tabs": "all",
                                "toolbar": "full",
                                "media_upload": 1
                            },
                            {
                                "key": "field_5696bcd27b7cd",
                                "label": "Accordion Rows",
                                "name": "accordion_block_rows",
                                "type": "repeater",
                                "instructions": "",
                                "required": 0,
                                "conditional_logic": 0,
                                "wrapper": {
                                    "width": "",
                                    "class": "",
                                    "id": ""
                                },
                                "collapsed": "",
                                "min": "",
                                "max": "",
                                "layout": "table",
                                "button_label": "Add Row",
                                "sub_fields": [
                                    {
                                        "key": "field_5696be227b7ce",
                                        "label": "Lede",
                                        "name": "lede",
                                        "type": "text",
                                        "instructions": "",
                                        "required": 0,
                                        "conditional_logic": 0,
                                        "wrapper": {
                                            "width": "",
                                            "class": "",
                                            "id": ""
                                        },
                                        "default_value": "",
                                        "placeholder": "",
                                        "prepend": "",
                                        "append": "",
                                        "maxlength": "",
                                        "readonly": 0,
                                        "disabled": 0
                                    },
                                    {
                                        "key": "field_5696be2a7b7cf",
                                        "label": "Hidden Content",
                                        "name": "hidden_content",
                                        "type": "wysiwyg",
                                        "instructions": "",
                                        "required": 0,
                                        "conditional_logic": 0,
                                        "wrapper": {
                                            "width": "",
                                            "class": "",
                                            "id": ""
                                        },
                                        "default_value": "",
                                        "tabs": "all",
                                        "toolbar": "full",
                                        "media_upload": 1
                                    }
                                ]
                            },
                            {
                                "key": "field_569831ab05841",
                                "label": "Block Color",
                                "name": "accordion_block_color",
                                "type": "radio",
                                "instructions": "",
                                "required": 0,
                                "conditional_logic": 0,
                                "wrapper": {
                                    "width": "",
                                    "class": "",
                                    "id": ""
                                },
                                "choices": [],
                                "other_choice": 0,
                                "save_other_choice": 0,
                                "default_value": "",
                                "layout": "horizontal"
                            }
                        ],
                        "min": "",
                        "max": ""
                    },
                    {
                        "key": "567c4282e7add",
                        "name": "slider_block",
                        "label": "Slider Block",
                        "display": "block",
                        "sub_fields": [
                            {
                                "key": "field_5690284317f14",
                                "label": "Title",
                                "name": "slider_block_title",
                                "type": "text",
                                "instructions": "",
                                "required": 0,
                                "conditional_logic": 0,
                                "wrapper": {
                                    "width": "",
                                    "class": "",
                                    "id": ""
                                },
                                "default_value": "",
                                "placeholder": "",
                                "prepend": "",
                                "append": "",
                                "maxlength": "",
                                "readonly": 0,
                                "disabled": 0
                            },
                            {
                                "key": "field_567c428fe7ade",
                                "label": "Slides",
                                "name": "slider_block_slides",
                                "type": "repeater",
                                "instructions": "",
                                "required": 0,
                                "conditional_logic": 0,
                                "wrapper": {
                                    "width": "",
                                    "class": "",
                                    "id": ""
                                },
                                "collapsed": "",
                                "min": 4,
                                "max": "",
                                "layout": "table",
                                "button_label": "Add Row",
                                "sub_fields": [
                                    {
                                        "key": "field_567c42a3e7adf",
                                        "label": "Image",
                                        "name": "image",
                                        "type": "image",
                                        "instructions": "",
                                        "required": 0,
                                        "conditional_logic": 0,
                                        "wrapper": {
                                            "width": "",
                                            "class": "",
                                            "id": ""
                                        },
                                        "return_format": "array",
                                        "preview_size": "thumbnail",
                                        "library": "all",
                                        "min_width": "",
                                        "min_height": "",
                                        "min_size": "",
                                        "max_width": "",
                                        "max_height": "",
                                        "max_size": "",
                                        "mime_types": ""
                                    }
                                ]
                            },
                            {
                                "key": "field_568e6d83d02da",
                                "label": "Block Color",
                                "name": "slider_block_color",
                                "type": "radio",
                                "instructions": "",
                                "required": 0,
                                "conditional_logic": 0,
                                "wrapper": {
                                    "width": "",
                                    "class": "",
                                    "id": ""
                                },
                                "choices": [],
                                "other_choice": 0,
                                "save_other_choice": 0,
                                "default_value": "",
                                "layout": "horizontal"
                            }
                        ],
                        "min": "",
                        "max": ""
                    },
                    {
                        "key": "567c5438e837d",
                        "name": "table_block",
                        "label": "Table Block",
                        "display": "block",
                        "sub_fields": [
                            {
                                "key": "field_567c543fe837e",
                                "label": "Title",
                                "name": "table_block_title",
                                "type": "text",
                                "instructions": "",
                                "required": 0,
                                "conditional_logic": 0,
                                "wrapper": {
                                    "width": "",
                                    "class": "",
                                    "id": ""
                                },
                                "default_value": "",
                                "placeholder": "",
                                "prepend": "",
                                "append": "",
                                "maxlength": "",
                                "readonly": 0,
                                "disabled": 0
                            },
                            {
                                "key": "field_567c544ce837f",
                                "label": "Content",
                                "name": "table_block_content",
                                "type": "wysiwyg",
                                "instructions": "",
                                "required": 0,
                                "conditional_logic": 0,
                                "wrapper": {
                                    "width": "",
                                    "class": "",
                                    "id": ""
                                },
                                "default_value": "",
                                "tabs": "all",
                                "toolbar": "full",
                                "media_upload": 1
                            },
                            {
                                "key": "field_567c5756e8380",
                                "label": "Table",
                                "name": "table_block_table",
                                "type": "repeater",
                                "instructions": "",
                                "required": 0,
                                "conditional_logic": 0,
                                "wrapper": {
                                    "width": "",
                                    "class": "",
                                    "id": ""
                                },
                                "collapsed": "",
                                "min": "",
                                "max": "",
                                "layout": "table",
                                "button_label": "Add Row",
                                "sub_fields": [
                                    {
                                        "key": "field_567c5767e8381",
                                        "label": "Left Text",
                                        "name": "left_text",
                                        "type": "text",
                                        "instructions": "",
                                        "required": 0,
                                        "conditional_logic": 0,
                                        "wrapper": {
                                            "width": 33,
                                            "class": "",
                                            "id": ""
                                        },
                                        "default_value": "",
                                        "placeholder": "",
                                        "prepend": "",
                                        "append": "",
                                        "maxlength": "",
                                        "readonly": 0,
                                        "disabled": 0
                                    },
                                    {
                                        "key": "field_567c5786e8382",
                                        "label": "Right Text",
                                        "name": "right_text",
                                        "type": "text",
                                        "instructions": "",
                                        "required": 0,
                                        "conditional_logic": 0,
                                        "wrapper": {
                                            "width": 33,
                                            "class": "",
                                            "id": ""
                                        },
                                        "default_value": "",
                                        "placeholder": "",
                                        "prepend": "",
                                        "append": "",
                                        "maxlength": "",
                                        "readonly": 0,
                                        "disabled": 0
                                    },
                                    {
                                        "key": "field_567c5791e8383",
                                        "label": "Link",
                                        "name": "link",
                                        "type": "page_link",
                                        "instructions": "",
                                        "required": 0,
                                        "conditional_logic": 0,
                                        "wrapper": {
                                            "width": "",
                                            "class": "",
                                            "id": ""
                                        },
                                        "post_type": [],
                                        "taxonomy": [],
                                        "allow_null": 0,
                                        "multiple": 0
                                    }
                                ]
                            },
                            {
                                "key": "field_568e6d93d02db",
                                "label": "Block Color",
                                "name": "table_block_color",
                                "type": "radio",
                                "instructions": "",
                                "required": 0,
                                "conditional_logic": 0,
                                "wrapper": {
                                    "width": "",
                                    "class": "",
                                    "id": ""
                                },
                                "choices": [],
                                "other_choice": 0,
                                "save_other_choice": 0,
                                "default_value": "",
                                "layout": "horizontal"
                            }
                        ],
                        "min": "",
                        "max": ""
                    },
                    {
                        "key": "569d9ff728231",
                        "name": "generic_content_block",
                        "label": "Generic Content",
                        "display": "block",
                        "sub_fields": [
                            {
                                "key": "field_569da03828233",
                                "label": "Title",
                                "name": "generic_content_block_title",
                                "type": "text",
                                "instructions": "",
                                "required": 0,
                                "conditional_logic": 0,
                                "wrapper": {
                                    "width": "",
                                    "class": "",
                                    "id": ""
                                },
                                "default_value": "",
                                "placeholder": "",
                                "prepend": "",
                                "append": "",
                                "maxlength": "",
                                "readonly": 0,
                                "disabled": 0
                            },
                            {
                                "key": "field_569da00928232",
                                "label": "Content",
                                "name": "generic_content_block_content",
                                "type": "wysiwyg",
                                "instructions": "",
                                "required": 0,
                                "conditional_logic": 0,
                                "wrapper": {
                                    "width": "",
                                    "class": "",
                                    "id": ""
                                },
                                "default_value": "",
                                "tabs": "all",
                                "toolbar": "full",
                                "media_upload": 1
                            },
                            {
                                "key": "field_569da04b28234",
                                "label": "Block Color",
                                "name": "generic_content_block_color",
                                "type": "radio",
                                "instructions": "",
                                "required": 0,
                                "conditional_logic": 0,
                                "wrapper": {
                                    "width": "",
                                    "class": "",
                                    "id": ""
                                },
                                "choices": [],
                                "other_choice": 0,
                                "save_other_choice": 0,
                                "default_value": "",
                                "layout": "horizontal"
                            }
                        ],
                        "min": "",
                        "max": ""
                    },
                    {
                        "key": "567dbc8f10bc3",
                        "name": "info_block",
                        "label": "Info Block",
                        "display": "block",
                        "sub_fields": [
                            {
                                "key": "field_56951fce7c2f5",
                                "label": "Title",
                                "name": "info_block_title",
                                "type": "text",
                                "instructions": "",
                                "required": 0,
                                "conditional_logic": 0,
                                "wrapper": {
                                    "width": "",
                                    "class": "",
                                    "id": ""
                                },
                                "default_value": "",
                                "placeholder": "",
                                "prepend": "",
                                "append": "",
                                "maxlength": "",
                                "readonly": 0,
                                "disabled": 0
                            },
                            {
                                "key": "field_569e8588fba23",
                                "label": "Content",
                                "name": "info_block_content",
                                "type": "wysiwyg",
                                "instructions": "",
                                "required": 0,
                                "conditional_logic": 0,
                                "wrapper": {
                                    "width": "",
                                    "class": "",
                                    "id": ""
                                },
                                "default_value": "",
                                "tabs": "all",
                                "toolbar": "full",
                                "media_upload": 1
                            },
                            {
                                "key": "field_567dbca710bc4",
                                "label": "Locations",
                                "name": "info_block_locations",
                                "type": "repeater",
                                "instructions": "",
                                "required": 0,
                                "conditional_logic": 0,
                                "wrapper": {
                                    "width": "",
                                    "class": "",
                                    "id": ""
                                },
                                "collapsed": "",
                                "min": "",
                                "max": "",
                                "layout": "table",
                                "button_label": "Add Row",
                                "sub_fields": [
                                    {
                                        "key": "field_567dbf6424432",
                                        "label": "Location",
                                        "name": "location",
                                        "type": "post_object",
                                        "instructions": "",
                                        "required": 0,
                                        "conditional_logic": 0,
                                        "wrapper": {
                                            "width": "",
                                            "class": "",
                                            "id": ""
                                        },
                                        "post_type": [
                                            "location"
                                        ],
                                        "taxonomy": [],
                                        "allow_null": 0,
                                        "multiple": 0,
                                        "return_format": "object",
                                        "ui": 1
                                    }
                                ]
                            },
                            {
                                "key": "field_56a00e504bad7",
                                "label": "Info",
                                "name": "info_block_info",
                                "type": "repeater",
                                "instructions": "",
                                "required": 0,
                                "conditional_logic": 0,
                                "wrapper": {
                                    "width": 75,
                                    "class": "",
                                    "id": ""
                                },
                                "collapsed": "",
                                "min": "",
                                "max": "",
                                "layout": "table",
                                "button_label": "Add Row",
                                "sub_fields": [
                                    {
                                        "key": "field_56a00e794bad8",
                                        "label": "Label",
                                        "name": "label",
                                        "type": "text",
                                        "instructions": "",
                                        "required": 0,
                                        "conditional_logic": 0,
                                        "wrapper": {
                                            "width": "",
                                            "class": "",
                                            "id": ""
                                        },
                                        "default_value": "",
                                        "placeholder": "",
                                        "prepend": "",
                                        "append": "",
                                        "maxlength": "",
                                        "readonly": 0,
                                        "disabled": 0
                                    },
                                    {
                                        "key": "field_56a00e804bad9",
                                        "label": "Text",
                                        "name": "text",
                                        "type": "text",
                                        "instructions": "",
                                        "required": 0,
                                        "conditional_logic": 0,
                                        "wrapper": {
                                            "width": "",
                                            "class": "",
                                            "id": ""
                                        },
                                        "default_value": "",
                                        "placeholder": "",
                                        "prepend": "",
                                        "append": "",
                                        "maxlength": "",
                                        "readonly": 0,
                                        "disabled": 0
                                    }
                                ]
                            },
                            {
                                "key": "field_56a00ec24bada",
                                "label": "Use Default Info",
                                "name": "info_block_default_info",
                                "type": "true_false",
                                "instructions": "For Ministries & Locations: address(es), email and phone will automatically be added unless this is unchecked.",
                                "required": 0,
                                "conditional_logic": 0,
                                "wrapper": {
                                    "width": 25,
                                    "class": "",
                                    "id": ""
                                },
                                "message": "",
                                "default_value": 1
                            },
                            {
                                "key": "field_568e6da4d02dc",
                                "label": "Block Color",
                                "name": "info_block_color",
                                "type": "radio",
                                "instructions": "",
                                "required": 0,
                                "conditional_logic": 0,
                                "wrapper": {
                                    "width": "",
                                    "class": "",
                                    "id": ""
                                },
                                "choices": [],
                                "other_choice": 0,
                                "save_other_choice": 0,
                                "default_value": "",
                                "layout": "horizontal"
                            }
                        ],
                        "min": "",
                        "max": ""
                    },
                    {
                        "key": "568e6dd57ca0f",
                        "name": "posts_slider_block",
                        "label": "See & Hear Block",
                        "display": "block",
                        "sub_fields": [
                            {
                                "key": "field_568e6df17ca10",
                                "label": "Max Number of Posts",
                                "name": "posts_slider_block_max_number_of_posts",
                                "type": "number",
                                "instructions": "",
                                "required": 0,
                                "conditional_logic": 0,
                                "wrapper": {
                                    "width": "",
                                    "class": "",
                                    "id": ""
                                },
                                "default_value": 10,
                                "placeholder": "",
                                "prepend": "",
                                "append": "",
                                "min": 5,
                                "max": "",
                                "step": "",
                                "readonly": 0,
                                "disabled": 0
                            },
                            {
                                "key": "field_568e6e177ca11",
                                "label": "Author",
                                "name": "posts_slider_block_author",
                                "type": "user",
                                "instructions": "",
                                "required": 0,
                                "conditional_logic": 0,
                                "wrapper": {
                                    "width": "",
                                    "class": "",
                                    "id": ""
                                },
                                "role": "",
                                "allow_null": 0,
                                "multiple": 1
                            },
                            {
                                "key": "field_568e6e4c7ca12",
                                "label": "Block Color",
                                "name": "posts_slider_block_color",
                                "type": "radio",
                                "instructions": "",
                                "required": 0,
                                "conditional_logic": 0,
                                "wrapper": {
                                    "width": "",
                                    "class": "",
                                    "id": ""
                                },
                                "choices": [],
                                "other_choice": 0,
                                "save_other_choice": 0,
                                "default_value": "",
                                "layout": "horizontal"
                            },
                            {
                                "key": "field_56951fdc7c2f6",
                                "label": "Title",
                                "name": "posts_slider_block_title",
                                "type": "text",
                                "instructions": "",
                                "required": 0,
                                "conditional_logic": 0,
                                "wrapper": {
                                    "width": "",
                                    "class": "",
                                    "id": ""
                                },
                                "default_value": "",
                                "placeholder": "",
                                "prepend": "",
                                "append": "",
                                "maxlength": "",
                                "readonly": 0,
                                "disabled": 0
                            }
                        ],
                        "min": "",
                        "max": ""
                    },
                    {
                        "key": "5696b95f3ab94",
                        "name": "banner_block",
                        "label": "Banner Block (Call to Action)",
                        "display": "block",
                        "sub_fields": [
                            {
                                "key": "field_5696b9693ab95",
                                "label": "Banner Title",
                                "name": "banner_block_title",
                                "type": "text",
                                "instructions": "",
                                "required": 0,
                                "conditional_logic": 0,
                                "wrapper": {
                                    "width": "",
                                    "class": "",
                                    "id": ""
                                },
                                "default_value": "",
                                "placeholder": "",
                                "prepend": "",
                                "append": "",
                                "maxlength": "",
                                "readonly": 0,
                                "disabled": 0
                            },
                            {
                                "key": "field_5696b994304f7",
                                "label": "Banner Text",
                                "name": "banner_block_text",
                                "type": "wysiwyg",
                                "instructions": "",
                                "required": 0,
                                "conditional_logic": 0,
                                "wrapper": {
                                    "width": "",
                                    "class": "",
                                    "id": ""
                                },
                                "default_value": "",
                                "tabs": "all",
                                "toolbar": "full",
                                "media_upload": 1
                            },
                            {
                                "key": "field_5696b9b4304f8",
                                "label": "Banner Button",
                                "name": "banner_block_button_text",
                                "type": "text",
                                "instructions": "",
                                "required": 0,
                                "conditional_logic": 0,
                                "wrapper": {
                                    "width": 33,
                                    "class": "",
                                    "id": ""
                                },
                                "default_value": "",
                                "placeholder": "",
                                "prepend": "",
                                "append": "",
                                "maxlength": "",
                                "readonly": 0,
                                "disabled": 0
                            },
                            {
                                "key": "field_5696b9c9304f9",
                                "label": "Banner Link",
                                "name": "banner_block_button_link",
                                "type": "page_link",
                                "instructions": "",
                                "required": 0,
                                "conditional_logic": 0,
                                "wrapper": {
                                    "width": 33,
                                    "class": "",
                                    "id": ""
                                },
                                "post_type": [],
                                "taxonomy": [],
                                "allow_null": 1,
                                "multiple": 0
                            },
                            {
                                "key": "field_56af15f97442e",
                                "label": "External Banner Link",
                                "name": "banner_block_custom_button_link",
                                "type": "text",
                                "instructions": "",
                                "required": 0,
                                "conditional_logic": 0,
                                "wrapper": {
                                    "width": 33,
                                    "class": "",
                                    "id": ""
                                },
                                "default_value": "",
                                "placeholder": "",
                                "prepend": "",
                                "append": "",
                                "maxlength": "",
                                "readonly": 0,
                                "disabled": 0
                            },
                            {
                                "key": "field_569831d405842",
                                "label": "Block Color",
                                "name": "banner_block_color",
                                "type": "radio",
                                "instructions": "",
                                "required": 0,
                                "conditional_logic": 0,
                                "wrapper": {
                                    "width": "",
                                    "class": "",
                                    "id": ""
                                },
                                "choices": [],
                                "other_choice": 0,
                                "save_other_choice": 0,
                                "default_value": "",
                                "layout": "horizontal"
                            }
                        ],
                        "min": "",
                        "max": ""
                    },
                    {
                        "key": "569d8e8ff023b",
                        "name": "people_block",
                        "label": "People",
                        "display": "block",
                        "sub_fields": [
                            {
                                "key": "field_569d9074a279e",
                                "label": "Title",
                                "name": "people_block_title",
                                "type": "text",
                                "instructions": "",
                                "required": 0,
                                "conditional_logic": 0,
                                "wrapper": {
                                    "width": "",
                                    "class": "",
                                    "id": ""
                                },
                                "default_value": "",
                                "placeholder": "",
                                "prepend": "",
                                "append": "",
                                "maxlength": "",
                                "readonly": 0,
                                "disabled": 0
                            },
                            {
                                "key": "field_569d8ed2f023c",
                                "label": "People",
                                "name": "people_block_people",
                                "type": "post_object",
                                "instructions": "",
                                "required": 0,
                                "conditional_logic": 0,
                                "wrapper": {
                                    "width": "",
                                    "class": "",
                                    "id": ""
                                },
                                "post_type": [
                                    "people"
                                ],
                                "taxonomy": [],
                                "allow_null": 0,
                                "multiple": 1,
                                "return_format": "object",
                                "ui": 1
                            },
                            {
                                "key": "field_569d999b5db24",
                                "label": "Block Color",
                                "name": "people_block_color",
                                "type": "radio",
                                "instructions": "",
                                "required": 0,
                                "conditional_logic": 0,
                                "wrapper": {
                                    "width": "",
                                    "class": "",
                                    "id": ""
                                },
                                "choices": [],
                                "other_choice": 0,
                                "save_other_choice": 0,
                                "default_value": "",
                                "layout": "horizontal"
                            }
                        ],
                        "min": "",
                        "max": ""
                    },
                    {
                        "key": "56ad6817cc720",
                        "name": "locations_block",
                        "label": "Locations",
                        "display": "block",
                        "sub_fields": [
                            {
                                "key": "field_56ad6817cc721",
                                "label": "Title",
                                "name": "locations_block_title",
                                "type": "text",
                                "instructions": "",
                                "required": 0,
                                "conditional_logic": 0,
                                "wrapper": {
                                    "width": "",
                                    "class": "",
                                    "id": ""
                                },
                                "default_value": "",
                                "placeholder": "",
                                "prepend": "",
                                "append": "",
                                "maxlength": "",
                                "readonly": 0,
                                "disabled": 0
                            },
                            {
                                "key": "field_56ad6817cc722",
                                "label": "Locations",
                                "name": "locations_block_locations",
                                "type": "post_object",
                                "instructions": "",
                                "required": 0,
                                "conditional_logic": 0,
                                "wrapper": {
                                    "width": "",
                                    "class": "",
                                    "id": ""
                                },
                                "post_type": [
                                    "location"
                                ],
                                "taxonomy": [],
                                "allow_null": 0,
                                "multiple": 1,
                                "return_format": "object",
                                "ui": 1
                            },
                            {
                                "key": "field_56ad6817cc723",
                                "label": "Block Color",
                                "name": "locations_block_color",
                                "type": "radio",
                                "instructions": "",
                                "required": 0,
                                "conditional_logic": 0,
                                "wrapper": {
                                    "width": "",
                                    "class": "",
                                    "id": ""
                                },
                                "choices": [],
                                "other_choice": 0,
                                "save_other_choice": 0,
                                "default_value": "",
                                "layout": "horizontal"
                            }
                        ],
                        "min": "",
                        "max": ""
                    }
                ]
            }
        ],
        "location": [
            [
                {
                    "param": "post_type",
                    "operator": "==",
                    "value": "post"
                }
            ],
            [
                {
                    "param": "post_type",
                    "operator": "==",
                    "value": "page"
                }
            ],
            [
                {
                    "param": "post_type",
                    "operator": "==",
                    "value": "ministry"
                }
            ],
            [
                {
                    "param": "post_type",
                    "operator": "==",
                    "value": "post"
                }
            ],
            [
                {
                    "param": "post_type",
                    "operator": "==",
                    "value": "event"
                }
            ],
            [
                {
                    "param": "post_type",
                    "operator": "==",
                    "value": "location"
                }
            ]
        ],
        "menu_order": 0,
        "position": "normal",
        "style": "default",
        "label_placement": "top",
        "instruction_placement": "label",
        "hide_on_screen": "",
        "active": 1,
        "description": ""
    }
]